Load Zoom Transcript — load_zoom_transcript • engager
…
    Details

    Original code posted by Conor Healy:
https://ucbischool.slack.com/archives/C02A36407K9/p1631855705002000 Addition
of wordcount by Brooks Ambrose:
https://gist.github.com/brooksambrose/1a8a673eb3bf884c1868ad4d80f08246

    Examples

# Load a sample transcript from the package's extdata directory
transcript_file <- system.file("extdata/transcripts/GMT20240124-202901_Recording.transcript.vtt",
  package = "engager"
)
load_zoom_transcript(transcript_file_path = transcript_file)
#> # A tibble: 102 × 8
#>    transcript_file       comment_num name  comment start     end        duration
#>    <chr>                 <chr>       <chr> <chr>   <time>    <time>     <drtn>  
#>  1 GMT20240124-202901_R… 1           Srij… Hi!     00'00.05" 00'01.790"  1.740 …
#>  2 GMT20240124-202901_R… 2           Cono… Get th… 00'02.07" 00'04.050"  1.980 …
#>  3 GMT20240124-202901_R… 3           Srij… Hello!… 00'05.14" 00'08.310"  3.170 …
#>  4 GMT20240124-202901_R… 4           Srij… So      00'09.71" 00'11.670"  1.960 …
#>  5 GMT20240124-202901_R… 5           Cono… let's … 00'12.16" 00'14.309"  2.149 …
#>  6 GMT20240124-202901_R… 6           Cono… Studen… 00'14.55" 00'30.599" 16.049 …
#>  7 GMT20240124-202901_R… 7           Cono… that.   00'31.44" 00'32.390"  0.950 …
#>  8 GMT20240124-202901_R… 8           Dr. … and I'… 00'32.52" 00'43.089" 10.569 …
#>  9 GMT20240124-202901_R… 9           Dr. … Can yo… 00'43.50" 00'51.110"  7.610 …
#> 10 GMT20240124-202901_R… 10          Dr. … yeah, … 00'51.13" 00'58.459"  7.329 …
#> # ℹ 92 more rows
#> # ℹ 1 more variable: wordcount <int>
…
